{
    "name": "walkable_beautiful_bridge_railway",
    "version": "0.1.0",
    "title": "Walkable Beautiful Bridge Railways",
    "author": "Nodnarb3",
    "factorio_version": "1.1",
    "dependencies": ["beautiful_bridge_railway >= 1.1"],
    "description": "Makes newly placed Beautiful Bridge Railways walkable - mostly. Its a bit scuffed."
}
